[IP:::1,Date:2016-08-25 10:27:00:567]2016/8/25 10:27:00
测试功能：网银充值功能
接口地址：http://www.yeepay.com/app-merchant-proxy/node
商户编号：10000457067
商户密钥：U26po59182dV8d7654bo24o5z369408u4sQ3To9j6QuopAbo3gwj4h33mro4
请求信息：[p0_Cmd,Load]  [p1_MerId,10000457067]  [p2_Order,Onlince824a526fo]  [p3_Amt,1.01]  [p4_Cur,CNY]  [p5_Pid,]  [p6_Pcat,]  [p7_Pdesc,]  [p8_Url,http://localhost:61756/CallBackPay.aspx]  [pa_MP,]  [pa_Ext,]  [pb_Oper,]  [pd_FrpId,]  [pd_BankBranch,]  [pt_ActId,0]  [pv_Ver,2.0]  [hmac,]  
加密的字符串：Load10000457067Onlince824a526fo1.01CNYhttp://localhost:61756/CallBackPay.aspx02.0
请求hmac：1614a1a6c3700ed79aaf9ffe63fddf9b
请求链接：http://www.yeepay.com/app-merchant-proxy/node?p0_Cmd=Load&p1_MerId=10000457067&p2_Order=Onlince824a526fo&p3_Amt=1.01&p4_Cur=CNY&p5_Pid=&p6_Pcat=&p7_Pdesc=&p8_Url=http%3a%2f%2flocalhost%3a61756%2fCallBackPay.aspx&pa_MP=&pa_Ext=&pb_Oper=&pd_FrpId=&pd_BankBranch=&pt_ActId=0&pv_Ver=2.0&hmac=1614a1a6c3700ed79aaf9ffe63fddf9b


